Getting started • modskurt
…
## [1] "Already compiled: discrete.stan"

# for reproducibility
set.seed(123456)

Case study - Tuangi vs. mud

The NZ cockle vs sediment mud content.

data(tuangi)
tuangi

## # A tibble: 764 × 11
##    year    lon   lat count mud_pct tn_conc toc_pct tp_conc sst_min sst_avg
##    <chr> <dbl> <dbl> <dbl>   <dbl>   <dbl>   <dbl>   <dbl>   <dbl>   <dbl>
##  1 2017   175. -40.5     0    19.8     250    0.32     380    12.8    15.3
##  2 2018   175. -40.5     1    26.7     500    0.3      380    12.9    15.6
##  3 2017   175. -40.5     0    20       250    0.29     370    12.8    15.3
##  4 2018   175. -40.5     0    23.3     250    0.24     360    12.9    15.6
##  5 2017   175. -40.5     1    17.2     250    0.28     350    12.8    15.3
##  6 2018   175. -40.5     0    19.9     250    0.21     330    12.9    15.6
##  7 2017   175. -40.5     0    26.9     250    0.28     380    12.8    15.3
##  8 2018   175. -40.5     0    44.1     500    0.39     420    12.9    15.6
##  9 2017   175. -40.5     0    22.5     250    0.26     380    12.8    15.3
## 10 2018   175. -40.5     0    34.8     250    0.34     390    12.9    15.6
## # ℹ 754 more rows
## # ℹ 1 more variable: sst_max <dbl>
…
