Linked zero-inflation • modskurt
…
# for reproducibility
set.seed(123456)

Case study - Sebastes proriger vs. water temperature

2015 data for Sebastes proriger (redstripe rockfish).

data(redstripe)
redstripe

## # A tibble: 2,330 × 13
##      trawl_id   lat   lng depth date       area_swept    do  temp   sal total_kg
##         <dbl> <dbl> <dbl> <dbl> <date>          <dbl> <dbl> <dbl> <dbl>    <dbl>
##  1    2.01e11  34.0 -120.  57   2012-07-14       1.70 4.58  12.5   33.6        0
##  2    2.01e11  37.8 -123.  57.2 2010-06-26       1.34 2.01   8.92  34.0        0
##  3    2.01e11  37.8 -123.  57.6 2012-06-30       1.70 1.03   8.50  34.0        0
##  4    2.01e11  34.6 -121.  58.6 2008-10-21       1.40 3.95  11.9   33.6        0
##  5    2.01e11  33.9 -119.  58.6 2013-07-20       1.51 3.10  10.5   33.6        0
##  6    2.01e11  35.1 -121.  59.1 2010-10-06       1.48 2.69  11.0   33.6        0
##  7    2.01e11  37.7 -123.  59.2 2013-06-29       1.55 0.819  8.71  34.0        0
##  8    2.01e11  34.2 -119.  59.3 2011-10-11       1.67 4.11  11.2   33.4        0
##  9    2.01e11  42.0 -124.  59.4 2010-09-16       1.57 2.39   8.55  33.8        0
## 10    2.01e11  40.8 -124.  59.4 2010-06-22       1.63 2.01   7.28  34.0        0
## # ℹ 2,320 more rows
## # ℹ 3 more variables: cpue_kg <dbl>, total_count <dbl>, cpue_count <dbl>
…
